name,email,document,city,state,start_date
Mariana Assunção Barros,mariana.barros.97@gmail.com,901.957.380-20,Vila Nicole,Pernambuco,2020-01-10
Dr. Valentin Fontes,vfontes@ig.com.br,031.416.220-86,Santa Luara,Goiás,2019-02-28
João Colaço Matias Neto,jcmn@pedrosa.org,133.256.750-71,Michele do Norte,Piauí,2020-03-01
Teobaldo Montenegro Sobrinho,teo@montenegro.com,643.842.640-70,Ávila do Sul,Amazonas,2018-05-01
Dr. Mário Tomás Maldonado,drmariomaldonado@r7.com,928.228.050-08,Vila Adriano do Sul,Minas Gerais,2020-01-10
Sra. Micaela Sandoval Gil,misandoval@globo.com,,Ferreira do Norte,Tocantins,2019-03-18
Fátima Fontes,ffontes@gmail.com,771.406.180-46,Porto Luara,Maranhão,2020-02-01
,francisco.dasneves@desouza.br,172.100.560-92,Santa Giovana,Rio de Janeiro,2020-02-20
Srta. Norma Galvão,normagalvao@gmail.com,882.708.630-76,Colaço do Norte,Mato Grosso do Sul,2020-01-10
